Biol607 Midterm Exam 2018
…
#Get the 95% CI
profile_slope %>%
  filter(log_lik > max(log_lik) -1.96) %>%
  arrange(slope) %>%
  filter(row_number() == 1 | row_number() == n())

## # A tibble: 31 x 4
## # Groups:   slope [31]
##    intercept slope resid_sd log_lik
##        <dbl> <dbl>    <dbl>   <dbl>
##  1       0.6  0.2       1.5  -5404.
##  2       0.6  0.21      1.5  -4878.
##  3       0.6  0.22      1.5  -4388.
##  4       0.6  0.23      1.5  -3935.
##  5       0.6  0.24      1.5  -3516.
##  6       0.6  0.25      1.5  -3134.
##  7       0.6  0.26      1.5  -2788.
##  8       0.6  0.27      1.5  -2477.
##  9       0.6  0.28      1.5  -2202.
## 10       0.6  0.29      1.5  -1963.
## # ... with 21 more rows

#Get the 80% CI
profile_slope %>%
  filter(log_lik > max(log_lik) - 1.642/2) %>%
  arrange(slope) %>%
  filter(row_number() == 1 | row_number() == n())

## # A tibble: 31 x 4
## # Groups:   slope [31]
##    intercept slope resid_sd log_lik
##        <dbl> <dbl>    <dbl>   <dbl>
##  1       0.6  0.2       1.5  -5404.
##  2       0.6  0.21      1.5  -4878.
##  3       0.6  0.22      1.5  -4388.
##  4       0.6  0.23      1.5  -3935.
##  5       0.6  0.24      1.5  -3516.
##  6       0.6  0.25      1.5  -3134.
##  7       0.6  0.26      1.5  -2788.
##  8       0.6  0.27      1.5  -2477.
##  9       0.6  0.28      1.5  -2202.
## 10       0.6  0.29      1.5  -1963.
## # ... with 21 more rows
…
